{
    "port": 3000,
    "watchpath": "../photos",
    "admin": {
        "password": "123"
    },
    "image": {
        "standard":{
            "quality": 90
        },
        "thumbnail":{
            "width": 300,
            "height": 200,
            "quality": 60
        }
    },
    "max_select": 2,
    "mail": {
        "from" : "Hello Robot <io@hello.io>",
        "subject": "Hello",
        "attemptsLimit": 100,
        "smtp": {
            "host": "p188309.mail.ihc.ru",
            "port": 25,
            "auth": {
                "user": "io@hello.io",
                "pass": "ioioio88"
            },
            "tls": {
              "rejectUnauthorized": false
            }
        }
    },
    "attempts_intrrval": 10e3,
    "attempts_limit": 10,
    "printer_name": "Microsoft Print to PDF",
    "send_to_email": true,
    "send_to_print": true
}